<?xml version="1.0" encoding="iso-8859-1"?>
<!-- Generator: Adobe Illustrator 18.1.1, SVG Export Plug-In . SVG Version: 6.00 Build 0)  -->
<svg version="1.1" id="Capa_1" xmlns="http://www.w3.org/2000/svg" xmlns:xlink="http://www.w3.org/1999/xlink" x="0px" y="0px"
	 viewBox="0 0 16.125 16.125" style="enable-background:new 0 0 16.125 16.125;" xml:space="preserve">
<g>
	<path style="fill:#010002;" d="M16.108,3.218c0.216,0.474-1.67,1.794-4.213,2.947c-0.163,0.072-0.345,0.155-0.541,0.241
		l-2.432,8.406L8.238,15.12l0.288-7.545C6.593,8.344,4.446,9.136,3.13,9.512l-0.388,3.165L2.55,12.768L2.293,9.71
		C2.056,9.747,1.912,9.744,1.886,9.682C1.858,9.621,1.948,9.51,2.131,9.358L0,7.155l0.196-0.09l2.637,1.792
		c1.15-0.744,3.159-1.84,5.012-2.796L1.968,1.317l0.679-0.312L10.578,4.7c0.195-0.092,0.376-0.175,0.538-0.249
		C13.659,3.295,15.894,2.745,16.108,3.218z"/>
</g>
<g>
</g>
<g>
</g>
<g>
</g>
<g>
</g>
<g>
</g>
<g>
</g>
<g>
</g>
<g>
</g>
<g>
</g>
<g>
</g>
<g>
</g>
<g>
</g>
<g>
</g>
<g>
</g>
<g>
</g>
</svg>
