<?xml version="1.0" encoding="utf-8"?>
<!-- Generator: Adobe Illustrator 22.0.1, SVG Export Plug-In . SVG Version: 6.00 Build 0)  -->
<svg version="1.1" id="Capa_1" xmlns="http://www.w3.org/2000/svg" xmlns:xlink="http://www.w3.org/1999/xlink" x="0px" y="0px"
	 viewBox="0 0 512 512" style="enable-background:new 0 0 512 512;" xml:space="preserve" >
<g>
	<g>
		<g>
			<path style="fill:#004b85;"  d="M294.2,246c-3.4,0.2-5.9,3.1-5.7,6.5c0.2,3.4,3.1,5.9,6.5,5.7c3.4-0.2,5.9-3.1,5.7-6.5
				C300.4,248.4,297.5,245.8,294.2,246z"/>
		</g>
	</g>
	<g>
		<g>
			<path style="fill:#004b85;" d="M325.7,158.4l-140.6,8.4l1.1,18.3c0.2,3.4-2.4,6.3-5.7,6.5s-6.3-2.4-6.5-5.7l-1.1-18.3l-43.2,2.6
				c-3.4,0.2-5.9,3.1-5.7,6.5l2.2,36.6c0.2,3.4,3.1,5.9,6.5,5.7c10.1-0.6,18.8,7.1,19.4,17.2s-7.1,18.8-17.2,19.4
				c-3.4,0.2-5.9,3.1-5.7,6.5l2.2,36.6c0.2,3.4,3.1,5.9,6.5,5.7l42.7-2.6l-1.1-18.3c-0.2-3.4,2.4-6.3,5.7-6.5
				c3.4-0.2,6.3,2.4,6.5,5.7l1.1,18.3l141.1-8.5c3.4-0.2,5.9-3.1,5.7-6.5l-7.3-122C331.9,160.8,329,158.2,325.7,158.4z M190,258.4
				c0.2,3.4-2.4,6.3-5.7,6.5c-3.4,0.2-6.3-2.4-6.5-5.7l-0.7-12.2c-0.2-3.4,2.4-6.3,5.7-6.5s6.3,2.4,6.5,5.7L190,258.4z M187.8,221.8
				c0.2,3.4-2.4,6.3-5.7,6.5c-3.4,0.2-6.3-2.4-6.5-5.7l-0.7-12.2c-0.2-3.4,2.4-6.3,5.7-6.5c3.4-0.2,6.3,2.4,6.5,5.7L187.8,221.8z
				 M224.5,207.3c-0.6-10.1,7.1-18.8,17.2-19.4c10.1-0.6,18.8,7.1,19.4,17.2s-7.1,18.8-17.2,19.4S225.1,217.4,224.5,207.3z
				 M243.4,272.5c-2.9-1.7-3.9-5.4-2.2-8.4l44.4-76.1c1.7-2.9,5.4-3.9,8.4-2.2c2.9,1.7,3.9,5.4,2.2,8.4l-44.4,76.1
				C250.1,273.2,246.4,274.2,243.4,272.5z M295.6,270.4c-10.1,0.6-18.8-7.1-19.4-17.2s7.1-18.8,17.2-19.4s18.8,7.1,19.4,17.2
				C313.4,261.1,305.7,269.8,295.6,270.4z"/>
		</g>
	</g>
	<g>
		<g>
			<path style="fill:#004b85;"  d="M242.5,200.1c-3.4,0.2-5.9,3.1-5.7,6.5c0.2,3.4,3.1,5.9,6.5,5.7c3.4-0.2,5.9-3.1,5.7-6.5S245.8,199.9,242.5,200.1z"/>
		</g>
	</g>
</g>
	<style>
		#Capa_1{transform:   transform: scale(1.9) rotate(-25deg);}
	</style>
</svg>
