<svg
 xmlns="http://www.w3.org/2000/svg"
 xmlns:xlink="http://www.w3.org/1999/xlink"
 width="20px" height="22px">
<path fill-rule="evenodd"  fill="rgb(22, 188, 255)"
 d="M12.246,5.972 C12.246,1.183 10.891,0.000 9.967,0.000 C9.043,0.000 7.688,1.183 7.688,5.972 L0.158,11.198 C0.071,11.258 -0.000,11.394 -0.000,11.498 L-0.000,13.507 C-0.000,13.759 0.203,13.920 0.450,13.865 L7.648,12.281 C7.921,14.402 8.383,16.299 8.678,18.249 L5.918,20.358 C5.841,20.418 5.778,20.547 5.778,20.645 L5.778,21.621 C5.778,21.931 6.012,22.082 6.299,21.956 L9.967,20.335 L13.635,21.956 C13.921,22.082 14.156,21.931 14.156,21.621 L14.156,20.645 C14.156,20.547 14.093,20.418 14.016,20.358 L11.256,18.249 C11.550,16.299 12.012,14.402 12.285,12.281 L19.483,13.865 C19.731,13.920 19.934,13.759 19.934,13.507 L19.934,11.498 C19.934,11.394 19.863,11.258 19.776,11.198 L12.246,5.972 ZM9.967,2.211 C9.502,2.211 9.064,2.313 8.673,2.488 C8.812,1.950 9.337,1.548 9.967,1.548 C10.597,1.548 11.121,1.950 11.261,2.488 C10.870,2.313 10.432,2.211 9.967,2.211 Z"/>
</svg>
