<?xml version="1.0" encoding="utf-8"?>
<!-- Generator: Adobe Illustrator 22.0.1, SVG Export Plug-In . SVG Version: 6.00 Build 0)  -->
<svg version="1.1" id="Layer_1" xmlns="http://www.w3.org/2000/svg" xmlns:xlink="http://www.w3.org/1999/xlink" x="0px" y="0px"
	 viewBox="0 0 69.1 9.5" style="enable-background:new 0 0 69.1 9.5;" xml:space="preserve">
<style type="text/css">
	.st0{fill:#FFFFFF;}
	.st1{fill:#FFAD00;}
</style>
<path class="st0" d="M4.9,6.5H2.4L2,7.5H0l2.4-4.8c0.2-0.5,0.7-0.8,1.2-0.8h0c0.5,0,1,0.3,1.2,0.8l2.4,4.8h-2L4.9,6.5z M2.8,5.5h1.6
	L3.6,3.5L2.8,5.5z"/>
<path class="st0" d="M10.4,6l1.5-4.1h2l-2.1,4.7c-0.3,0.6-0.8,0.9-1.4,0.9h0C9.8,7.5,9.2,7.2,9,6.6L6.9,1.9h2L10.4,6z"/>
<path class="st0" d="M16.5,7.5h-1.8V1.9h1.8V7.5z"/>
<path class="st0" d="M22.2,6.5h-2.5l-0.4,1h-2l2.4-4.8c0.2-0.5,0.7-0.8,1.2-0.8h0c0.5,0,1,0.3,1.2,0.8l2.4,4.8h-2L22.2,6.5z
	 M20.1,5.5h1.6l-0.8-1.9L20.1,5.5z"/>
<path class="st0" d="M29.2,4h-1.8v3.6H26V4h-1.8V3.2h5V4z"/>
<path class="st0" d="M31.3,7.5h-1.4V3.2h1.4V7.5z"/>
<path class="st0" d="M37.1,6.1c0,0.3-0.1,0.6-0.3,0.8c-0.2,0.2-0.5,0.4-0.9,0.5c-0.4,0.1-0.8,0.2-1.3,0.2c-0.8,0-1.4-0.2-1.8-0.6
	s-0.7-0.9-0.7-1.6V5.2c0-0.4,0.1-0.8,0.3-1.1c0.2-0.3,0.5-0.6,0.9-0.7c0.4-0.2,0.8-0.3,1.3-0.3c0.7,0,1.3,0.1,1.7,0.4
	s0.7,0.7,0.7,1.2h-1.4c0-0.3-0.1-0.5-0.3-0.6S35,3.9,34.6,3.9c-0.4,0-0.6,0.1-0.8,0.3c-0.2,0.2-0.3,0.5-0.3,0.9v0.3
	c0,0.5,0.1,0.8,0.2,1c0.2,0.2,0.4,0.3,0.8,0.3c0.3,0,0.6-0.1,0.8-0.2c0.2-0.1,0.3-0.3,0.3-0.5H37.1z"/>
<path class="st0" d="M39.8,5.9l-0.6,0.5v1.2h-1.4V3.2h1.4v1.9l0.5-0.6L41,3.2h1.8l-2,1.9l2,2.4h-1.7L39.8,5.9z"/>
<path class="st0" d="M46.8,5.7h-2.3v1h2.7v0.8h-4.1V3.2h4.1V4h-2.7v0.9h2.3V5.7z"/>
<path class="st0" d="M52.6,4h-1.8v3.6h-1.4V4h-1.8V3.2h5V4z"/>
<path class="st0" d="M56.2,6.4c0-0.2-0.1-0.3-0.2-0.4s-0.4-0.2-0.8-0.3c-0.4-0.1-0.7-0.2-0.9-0.3c-0.8-0.3-1.2-0.7-1.2-1.2
	c0-0.2,0.1-0.5,0.3-0.6c0.2-0.2,0.5-0.3,0.8-0.4c0.4-0.1,0.7-0.2,1.2-0.2c0.4,0,0.8,0.1,1.1,0.2c0.3,0.1,0.6,0.3,0.8,0.5
	c0.2,0.2,0.3,0.4,0.3,0.7h-1.4c0-0.2-0.1-0.3-0.2-0.4c-0.1-0.1-0.3-0.1-0.6-0.1c-0.3,0-0.5,0-0.6,0.1c-0.1,0.1-0.2,0.2-0.2,0.3
	c0,0.1,0.1,0.2,0.2,0.3s0.5,0.2,0.9,0.3c0.4,0.1,0.7,0.2,1,0.3c0.6,0.3,1,0.7,1,1.1c0,0.4-0.2,0.7-0.6,0.9c-0.4,0.2-0.9,0.3-1.6,0.3
	c-0.5,0-0.9-0.1-1.3-0.2c-0.4-0.1-0.7-0.3-0.9-0.5s-0.3-0.5-0.3-0.8h1.4c0,0.2,0.1,0.4,0.2,0.5c0.2,0.1,0.4,0.2,0.8,0.2
	c0.2,0,0.4,0,0.6-0.1C56.1,6.6,56.2,6.5,56.2,6.4z"/>
<g>
	<g>
		<path class="st1" d="M68.9,3.1l-0.7-0.7c-0.2,0.2-0.5,0.3-0.8,0.3c-0.3,0-0.6-0.1-0.8-0.3c-0.2-0.2-0.3-0.5-0.3-0.8
			c0-0.3,0.1-0.6,0.3-0.8l-0.7-0.7c-0.1-0.1-0.3-0.2-0.5-0.2c-0.2,0-0.4,0.1-0.5,0.2l-5.2,5.2c-0.1,0.1-0.2,0.3-0.2,0.5
			c0,0.2,0.1,0.4,0.2,0.5l0.7,0.7c0.2-0.2,0.5-0.3,0.8-0.3c0.3,0,0.6,0.1,0.8,0.3c0.2,0.2,0.3,0.5,0.3,0.8S62.2,8.4,62,8.6l0.7,0.7
			c0.1,0.1,0.3,0.2,0.5,0.2c0.2,0,0.4-0.1,0.5-0.2l5.2-5.2C69,4,69.1,3.8,69.1,3.6C69.1,3.4,69,3.3,68.9,3.1z M67.4,4.3l-3.5,3.5
			c-0.1,0.1-0.2,0.1-0.3,0.1c-0.1,0-0.2,0-0.3-0.1l-2.1-2.1c-0.1-0.1-0.1-0.2-0.1-0.3c0-0.1,0-0.2,0.1-0.3l3.5-3.5
			c0.1-0.1,0.2-0.1,0.3-0.1c0.1,0,0.2,0,0.3,0.1l2.1,2.1c0.1,0.1,0.1,0.2,0.1,0.3C67.5,4.1,67.4,4.2,67.4,4.3z"/>
		<path class="st1" d="M65,2.2L66.8,4l-3.3,3.3l-1.8-1.8L65,2.2z"/>
	</g>
</g>
</svg>
