<?xml version="1.0" encoding="utf-8"?>
<!-- Generator: Adobe Illustrator 22.0.1, SVG Export Plug-In . SVG Version: 6.00 Build 0)  -->
<svg version="1.1" id="Capa_1" xmlns="http://www.w3.org/2000/svg" xmlns:xlink="http://www.w3.org/1999/xlink" x="0px" y="0px"
	 viewBox="0 0 488 488" style="enable-background:new 0 0 488 488;" xml:space="preserve">
<g>
	<path style="fill:#16bcff;" d="M482,158.2c0,82.3-397,173.2-427,173.2c-16.9,0-36-3.9-36-19.4c0-5.2,6-12.7,16.5-21.7l0,0L7.7,240.8
		c-3.8-6.7-0.8-15.2,6.4-18.1l4.8-1.9c8.7-3.5,18.4-3,26.7,1.4L96.1,249c19.7-11.7,42-23.9,65.6-36l-98.6-64
		c-7.8-5.1-7.7-16.5,0.2-21.4l8.1-5.1c13.4-8.4,29.7-10.9,45.1-6.9l164,43.3c51.1-20.3,97.4-34.1,124.7-34.1
		c7.3,0,14.6,0.2,21.7,0.7l-49.5,22.4l-1.2,16.7l76.4-35.1C470.9,133.8,482,141.9,482,158.2z M282.5,300.4l61.2,69.5
		c3.7,4.2,9.8,5.5,14.9,3.1l8.2-3.8c14.9-6.9,23.7-22.7,21.8-39.1l-7.7-65.5c-0.5-4.1-4.6-6.6-8.4-5.3l-87.4,30.8
		C280.9,291.7,279.5,297,282.5,300.4z"/>
</g>
</svg>
